flowchart LR
mrepeat1([modulateRepeat 1])
mrepeat2([modulateRepeat 2])
mrotate([modulateRotate])
diff([diff])
osc1([osc 1])
osc2([osc 2])
osc3([osc 3])
    osc1 --> diff
    osc2 --> mrepeat1
    osc3 --> mrepeat2
    o1 --> diff
    o0 --> mrotate
    diff --> o0
    o2  --> mrotate
    o2 --> mrepeat1
    o3 --> mrepeat2
    mrepeat1 --> o1
    mrepeat2 --> o2
    mrotate --> o3
